nn,mae,window_size
cnn,1101.0391854282213,2
rnn,1007.04725107157,2
lstm,1185.7912263863318,2
gru,990.9237721694744,2
cnn,1069.1956443537113,3
rnn,947.3243663915714,3
lstm,1164.338360342522,3
gru,947.2800607404043,3
cnn,979.8910008032076,4
rnn,821.2537706290443,4
lstm,1251.3438707459961,4
gru,917.600049939218,4
cnn,993.805634656731,5
rnn,791.5367485371693,5
lstm,1286.9807949385906,5
gru,941.7161927125892,5
cnn,839.4873399350765,6
rnn,612.1930612515794,6
lstm,1264.0084356335828,6
gru,903.7731953326803,6
cnn,966.423507531484,7
rnn,580.1756474341739,7
lstm,1145.7434846002457,7
gru,875.9297959370572,7
cnn,966.423507531484,7
rnn,580.1756474341739,7
lstm,1145.7434846002457,7
gru,875.9297959370572,7
